date;value
01.01.1980;1297.49606079391
01.02.1980;1445.35774400181
01.03.1980;1343.92336266728
01.04.1980;1245.77250469043
01.05.1980;1294.8185326365
01.06.1980;1316.01617734874
01.07.1980;1389.76650810811
01.08.1980;1617.15950288041
01.09.1980;1377.49310518904
01.10.1980;1412.33748649011
01.11.1980;1182.8705630969
01.12.1980;1428.18708799154
01.01.1981;1478.44788919898
01.02.1981;1339.98302055068
01.03.1981;1375.21433907451
01.04.1981;1618.27274116131
01.05.1981;1423.92551098902
01.06.1981;1630.80443646958
01.07.1981;1448.8051541697
01.08.1981;1542.46528419036
01.09.1981;1348.04973262098
01.10.1981;1514.44419560011
01.11.1981;1853.98483457106
01.12.1981;1530.78064749361
01.01.1982;1637.43721420881
01.02.1982;1497.63526431131
01.03.1982;1517.56012511005
01.04.1982;1528.49247426802
01.05.1982;1300.15666922417
01.06.1982;1354.00387328947
01.07.1982;1616.84534437787
01.08.1982;1554.99354947232
01.09.1982;1584.78649026469
01.10.1982;1541.8855840727
01.11.1982;1509.10543295337
01.12.1982;1627.5209844608
01.01.1983;1538.5213864453
01.02.1983;1760.45254751177
01.03.1983;1563.96482143417
01.04.1983;1823.4620172469
01.05.1983;1748.35847427743
01.06.1983;1499.6706081604
01.07.1983;1642.70670044731
01.08.1983;1491.80046165365
01.09.1983;1337.29807487425
01.10.1983;1740.55889869152
01.11.1983;1504.05259348993
01.12.1983;1541.25631186604
01.01.1984;1702.03432913031
01.02.1984;1815.99556785849
01.03.1984;1620.77289594045
01.04.1984;1613.71488904371
01.05.1984;1602.57534847238
01.06.1984;1648.48529752864
01.07.1984;1550.80604909894
01.08.1984;1828.18746809866
01.09.1984;1757.2666843506
01.10.1984;1687.84413609945
01.11.1984;1686.25817995498
01.12.1984;1658.24090605509
01.01.1985;1898.83323001355
01.02.1985;1761.93669441562
01.03.1985;1697.07917408674
01.04.1985;1922.08580743778
01.05.1985;1928.30727496417
01.06.1985;1790.49378781245
01.07.1985;1935.27659075171
01.08.1985;1792.16453756197
01.09.1985;1692.61112585608
01.10.1985;1830.89132336695
01.11.1985;1972.27788263348
01.12.1985;1479.1989626311
01.01.1986;2000.95789020805
01.02.1986;1884.37696347138
01.03.1986;1706.17715298461
01.04.1986;1825.38723460434
01.05.1986;1949.34945705469
01.06.1986;1853.0234532073
01.07.1986;1556.31850179713
01.08.1986;1855.85328137202
01.09.1986;1680.83273742777
01.10.1986;1652.1818903085
01.11.1986;1608.84956771768
01.12.1986;1652.65063866866
01.01.1987;1821.05657203573
01.02.1987;1484.98904322517
01.03.1987;1570.55620925609
01.04.1987;1249.23118609505
01.05.1987;1451.46679704828
01.06.1987;1437.69173059374
01.07.1987;1653.7151412889
01.08.1987;1435.83769063044
01.09.1987;1311.63923145356
01.10.1987;1632.50130147915
01.11.1987;1392.88769971602
01.12.1987;1415.23727718608
01.01.1988;1414.95605173997
01.02.1988;1530.51549072714
01.03.1988;1487.38166348125
01.04.1988;1295.88353118731
01.05.1988;1242.62717650411
01.06.1988;1263.81053461424
01.07.1988;1312.71337199105
01.08.1988;1268.74316701074
01.09.1988;1103.12086846415
01.10.1988;1027.19173524023
01.11.1988;1199.41478898715
01.12.1988;1161.71347817049
