date;value
01.01.1980;560.647531200749
01.02.1980;516.640292818448
01.03.1980;501.275081352834
01.04.1980;478.567472315061
01.05.1980;492.419343706317
01.06.1980;489.788615501993
01.07.1980;456.197874064572
01.08.1980;472.689270276434
01.09.1980;506.04604898138
01.10.1980;491.632520377887
01.11.1980;440.247239422915
01.12.1980;442.219835033672
01.01.1981;463.091399010465
01.02.1981;448.023899416504
01.03.1981;476.323402584689
01.04.1981;424.685037190864
01.05.1981;481.690328699807
01.06.1981;455.524300811875
01.07.1981;445.641866157166
01.08.1981;466.426233079543
01.09.1981;463.97633818313
01.10.1981;411.681068221117
01.11.1981;409.401002632982
01.12.1981;425.192274530057
01.01.1982;438.907943174762
01.02.1982;461.285278077606
01.03.1982;413.392827195545
01.04.1982;419.526754103147
01.05.1982;391.910766669305
01.06.1982;413.708992924
01.07.1982;414.79865794719
01.08.1982;392.967632315989
01.09.1982;428.811744314499
01.10.1982;426.963845544628
01.11.1982;414.889398064819
01.12.1982;409.099207951213
01.01.1983;345.681067279153
01.02.1983;371.591998962725
01.03.1983;379.313245980587
01.04.1983;371.431163370591
01.05.1983;397.098702885125
01.06.1983;343.50539257027
01.07.1983;362.804737892551
01.08.1983;364.312048409291
01.09.1983;362.708226034932
01.10.1983;396.531982195867
01.11.1983;351.601511028212
01.12.1983;404.588929779904
01.01.1984;330.513456864285
01.02.1984;381.945471007667
01.03.1984;322.264486711938
01.04.1984;350.761768190083
01.05.1984;377.256841449384
01.06.1984;355.332520413018
01.07.1984;384.073109412102
01.08.1984;370.790238920666
01.09.1984;360.04997496572
01.10.1984;340.063851686498
01.11.1984;343.474061214495
01.12.1984;367.904750708603
01.01.1985;383.075325744223
01.02.1985;344.453385924818
01.03.1985;358.623726658401
01.04.1985;357.532195564301
01.05.1985;357.116213798615
01.06.1985;397.789944921451
01.07.1985;418.13557046004
01.08.1985;361.979396853784
01.09.1985;338.170199222166
01.10.1985;355.893316027469
01.11.1985;369.856326677478
01.12.1985;391.16920773584
01.01.1986;352.193016345291
01.02.1986;414.411571776305
01.03.1986;395.278439461717
01.04.1986;369.132806578503
01.05.1986;447.843238728609
01.06.1986;404.943145187157
01.07.1986;383.945535951712
01.08.1986;375.907579129582
01.09.1986;359.232897727913
01.10.1986;375.984836971436
01.11.1986;390.826151346338
01.12.1986;372.166721782941
01.01.1987;421.941642920968
01.02.1987;395.642102078061
01.03.1987;420.061791752321
01.04.1987;389.223153765547
01.05.1987;373.839408135834
01.06.1987;377.130402730727
01.07.1987;350.395205280279
01.08.1987;399.328507644013
01.09.1987;414.536660448858
01.10.1987;413.269018505029
01.11.1987;362.859643702751
01.12.1987;413.510421877496
01.01.1988;417.16666524725
01.02.1988;414.100936364533
01.03.1988;424.962061720913
01.04.1988;427.619172936429
01.05.1988;403.145885429727
01.06.1988;356.222790858996
01.07.1988;404.601431062955
01.08.1988;431.509520151862
01.09.1988;431.135802446265
01.10.1988;416.303840564301
01.11.1988;402.663161633493
01.12.1988;399.785836078716
